{
  "alt_text": "Seasonal Holidays 2023",
  "dark_large_image": {
    "alternate_url": "https://lh3.googleusercontent.com/wQflvWzwa6Uo2NZmVjkpvqcJv4f7QNAfJqmo3Ys80Lls9tvMf_uokrf1J3fbyRQzR4FKsWOBnb2axtpMY7G0nhJA2lK2u1i-I_nU5DLGq2eo_wHsNiB1",
    "background_color": "#1f1f1f",
    "brightness": "DARK",
    "height": 200,
    "image_id": 6752733080612634,
    "image_name": "Custom",
    "is_animated_gif": true,
    "overlay_icon_color": "#9e9e9e",
    "slot": 58,
    "theme_color": "",
    "url": "/logos/doodles/2023/seasonal-holidays-2023-6753651837110165.2-6752733080612634-cst.gif",
    "width": 500
  },
  "dark_log_url": "/async/ddllog?async=doodle:301602606,slot:58,type:1,cta:0",
  "dark_small_image": {
    "alternate_url": "https://lh3.googleusercontent.com/ykgfETNXDqQ9mtLEWjpENxRWkEkW2kkdRcjgBbJvCS2KvabOPH6m2gil0PDwm1_nToLNJCkHx3UmpGxnaPdYywUCsLzqjk7Ttnvxy59OqsvfpK2KiaVadQ",
    "height": 44,
    "image_id": 6752733080612633,
    "image_name": "SmallDark",
    "is_animated_gif": false,
    "slot": 64,
    "url": "/logos/doodles/2023/seasonal-holidays-2023-6753651837110165-sdrk.png",
    "width": 120
  },
  "doodle_type": "ANIMATED",
  "gallery_url": "http://www.google.com/doodles/seasonal-holidays-2023?hl=en",
  "hires_image": {
    "alternate_url": "https://lh3.googleusercontent.com/VP3JFNh5VFEyunJsZF3ODmsBC5aJ1rylSHfXvUCDtogLQOGDFgImq4LKrde2Ycy4LdvNgYM9kWjzw_37G1bjK2OdeYL-ya14O4EGedusaGpmUZLLNKCn3po",
    "height": 400,
    "image_id": 6752733080612616,
    "image_name": "HugeAnimated",
    "is_animated_gif": true,
    "slot": 3,
    "url": "/logos/doodles/2023/seasonal-holidays-2023-6753651837110165-2xa.gif",
    "width": 1000
  },
  "id": 301602606,
  "intent": "NOTHING",
  "large_image": {
    "alternate_url": "https://lh3.googleusercontent.com/67dbjQhwTuTYvazq5nvEJj-5jS8Akkl7lmuFauRclvYK51a4tYFuzefq5PwCKUe-O8F9ZNavAzW0wXh9mZ_KWQF9lNYOTWw6aMIkLzTr-S6mWlwMYSRpog",
    "height": 200,
    "image_id": 6752733080612631,
    "image_name": "Custom",
    "is_animated_gif": true,
    "slot": 1,
    "url": "/logos/doodles/2023/seasonal-holidays-2023-6753651837110165-6752733080612631-cst.gif",
    "width": 500
  },
  "log_url": "/async/ddllog?async=doodle:301602606,slot:1,type:1,cta:0",
  "meta_description": "Happy Holidays! #GoogleDoodle",
  "search_url": "/search?q=Seasonal+Holidays&oi=ddle&ct=301602606&hl=en",
  "share_text": "Happy Holidays! #GoogleDoodle\nhttps://g.co/doodle/3utrj6z",
  "short_link": "//g.co/doodle/3utrj6z",
  "show_now_header_search_affordance": false,
  "show_now_header_share_button": false,
  "small_image": {
    "alternate_url": "https://lh3.googleusercontent.com/SozeqFYPvzohoZGzhQS1ENxI6DkhUYbnn68b5vY7jbnzztom6iErTqP3Pn8fdxxwB6MOHYMFqWjmqOfeWc8cyKYOzPMz-Z7FhSH8TGJbznfUja1Upp0jIls",
    "height": 44,
    "image_id": 6752733080610697,
    "image_name": "Small",
    "is_animated_gif": false,
    "slot": 2,
    "url": "/logos/doodles/2023/seasonal-holidays-2023-6753651837110165.2-s.png",
    "width": 120
  },
  "social_short_links": {
    "copy_link": "//g.co/doodle/b48wkrc",
    "email_link": "//g.co/doodle/fam8scm",
    "facebook_link": "//g.co/doodle/k6qcsb9",
    "twitter_link": "//g.co/doodle/jkwr455"
  },
  "target_url_requires_external_clicktracking": false
}